{
  "startId": "org.unidata.mdm.meta[MODEL_DROP_DRAFT_START]",
  "subjectId": "",
  "description": "org.unidata.mdm.meta.model.draft.drop.description",
  "segments": [
    {
      "segmentType": "START",
      "id": "org.unidata.mdm.meta[MODEL_DROP_DRAFT_START]"
    },
    {
      "segmentType": "FINISH",
      "id": "org.unidata.mdm.meta[MODEL_DROP_DRAFT_FINISH]"
    }
  ]
}